{
  "name": "Dual Channel",

  "configuration": {
    "num_chans":              "2",
    "jedec_data_bus_bits":    "64",
    "trans_queue_depth":      "32",
    "cmd_queue_depth":        "32",
    "epoch_length":           "100000",
    "row_buffer_policy":      "open_page",
    "address_mapping_scheme": "scheme2",
    "scheduling_policy":      "rank_then_bank_round_robin",
    "queuing_structure":      "per_rank",
    "total_row_accesses":     "4"
  }
}
